module soli/formations

go 1.19

require (
	github.com/KyleBanks/depth v1.2.1 // indirect
	github.com/Microsoft/go-winio v0.5.2 // indirect
	github.com/ProtonMail/go-crypto v0.0.0-20230217124315-7d5c6f04bbb8 // indirect
	github.com/PuerkitoBio/purell v1.2.0 // indirect
	github.com/PuerkitoBio/urlesc v0.0.0-20170810143723-de5bf2ad4578 // indirect
	github.com/acomagu/bufpipe v1.0.4 // indirect
	github.com/cloudflare/circl v1.1.0 // indirect
	github.com/cpuguy83/go-md2man/v2 v2.0.2 // indirect
	github.com/davecgh/go-spew v1.1.1 // indirect
	github.com/dgrijalva/jwt-go v3.2.0+incompatible // indirect
	github.com/emirpasic/gods v1.18.1 // indirect
	github.com/ghodss/yaml v1.0.0 // indirect
	github.com/gin-contrib/sse v0.1.0 // indirect
	github.com/go-git/gcfg v1.5.0 // indirect
	github.com/go-git/go-billy/v5 v5.4.1 // indirect
	github.com/go-git/go-git v4.7.0+incompatible // indirect
	github.com/go-openapi/jsonpointer v0.19.6 // indirect
	github.com/go-openapi/jsonreference v0.20.2 // indirect
	github.com/go-openapi/spec v0.20.8 // indirect
	github.com/go-openapi/swag v0.22.3 // indirect
	github.com/go-playground/locales v0.14.1 // indirect
	github.com/go-playground/universal-translator v0.18.0 // indirect
	github.com/go-playground/validator/v10 v10.11.1 // indirect
	github.com/goccy/go-json v0.10.0 // indirect
	github.com/imdario/mergo v0.3.13 // indirect
	github.com/jackc/pgpassfile v1.0.0 // indirect
	github.com/jackc/pgservicefile v0.0.0-20221227161230-091c0ba34f0a // indirect
	github.com/jackc/pgx/v5 v5.2.0 // indirect
	github.com/jbenet/go-context v0.0.0-20150711004518-d14ea06fba99 // indirect
	github.com/jinzhu/gorm v1.9.16 // indirect
	github.com/jinzhu/inflection v1.0.0 // indirect
	github.com/jinzhu/now v1.1.5 // indirect
	github.com/joho/godotenv v1.4.0 // indirect
	github.com/josharian/intern v1.0.0 // indirect
	github.com/json-iterator/go v1.1.12 // indirect
	github.com/kevinburke/ssh_config v1.2.0 // indirect
	github.com/leodido/go-urn v1.2.1 // indirect
	github.com/mailru/easyjson v0.7.7 // indirect
	github.com/mattn/go-isatty v0.0.17 // indirect
	github.com/mattn/go-sqlite3 v1.14.16 // indirect
	github.com/modern-go/concurrent v0.0.0-20180306012644-bacd9c7ef1dd // indirect
	github.com/modern-go/reflect2 v1.0.2 // indirect
	github.com/pelletier/go-toml/v2 v2.0.6 // indirect
	github.com/pjbgf/sha1cd v0.3.0 // indirect
	github.com/pmezard/go-difflib v1.0.0 // indirect
	github.com/russross/blackfriday/v2 v2.1.0 // indirect
	github.com/sergi/go-diff v1.1.0 // indirect
	github.com/shurcooL/sanitized_anchor_name v1.0.0 // indirect
	github.com/skeema/knownhosts v1.1.0 // indirect
	github.com/stretchr/objx v0.5.0 // indirect
	github.com/swaggo/files v1.0.0 // indirect
	github.com/swaggo/gin-swagger v1.5.3 // indirect
	github.com/swaggo/swag v1.16.1 // indirect
	github.com/ugorji/go/codec v1.2.8 // indirect
	github.com/urfave/cli/v2 v2.25.0 // indirect
	github.com/xanzy/ssh-agent v0.3.3 // indirect
	github.com/xrash/smetrics v0.0.0-20201216005158-039620a65673 // indirect
	golang.org/x/net v0.8.0 // indirect
	golang.org/x/sys v0.6.0 // indirect
	golang.org/x/text v0.11.0 // indirect
	golang.org/x/tools v0.7.0 // indirect
	google.golang.org/protobuf v1.28.1 // indirect
	gopkg.in/src-d/go-git.v4 v4.13.1 // indirect
	gopkg.in/warnings.v0 v0.1.2 // indirect
	gopkg.in/yaml.v2 v2.4.0 // indirect
	gopkg.in/yaml.v3 v3.0.1 // indirect
	gorm.io/driver/postgres v1.4.6 // indirect
	gorm.io/driver/sqlite v1.4.4 // indirect
)

require (
	github.com/gin-gonic/gin v1.8.2
	github.com/go-git/go-git/v5 v5.6.1
	github.com/golang-jwt/jwt/v4 v4.5.0
	github.com/google/uuid v1.3.0
	github.com/lib/pq v1.10.9
	github.com/stretchr/testify v1.8.1
	golang.org/x/crypto v0.6.0
	gorm.io/gorm v1.24.3
)
